…
path_df
```

    ## # A tibble: 160 x 4
    ##    arm    week observation subject_id
    ##    <chr> <dbl>       <dbl> <chr>     
    ##  1 /con      1        0.2  /con_1    
    ##  2 /con      2       -1.31 /con_1    
    ##  3 /con      3        0.66 /con_1    
    ##  4 /con      4        1.96 /con_1    
    ##  5 /con      5        0.23 /con_1    
    ##  6 /con      6        1.09 /con_1    
    ##  7 /con      7        0.05 /con_1    
    ##  8 /con      8        1.94 /con_1    
    ##  9 /con      1        1.13 /con_2    
    ## 10 /con      2       -0.88 /con_2    
    ## # … with 150 more rows
…
